…
```r
miss_var_summary(amniota) #total NA's in this dataset
```

```
## # A tibble: 36 × 3
##    variable                  n_miss pct_miss
##    <chr>                      <int>    <dbl>
##  1 class                          0        0
##  2 order                          0        0
##  3 family                         0        0
##  4 genus                          0        0
##  5 species                        0        0
##  6 subspecies                     0        0
##  7 common_name                    0        0
##  8 female_maturity_d              0        0
##  9 litter_or_clutch_size_n        0        0
## 10 litters_or_clutches_per_y      0        0
## # ℹ 26 more rows
```
…
```r
miss_var_summary(amphibio) #amount of NA's in this dataset
```

```
## # A tibble: 38 × 3
##    variable n_miss pct_miss
##    <chr>     <int>    <dbl>
##  1 fruits     6774    100. 
##  2 flowers    6772     99.9
##  3 seeds      6772     99.9
##  4 leaves     6752     99.6
##  5 dry_cold   6735     99.4
##  6 vert       6657     98.2
##  7 obs        6651     98.2
##  8 wet_cold   6625     97.8
##  9 crepu      6608     97.5
## 10 dry_warm   6572     97.0
## # ℹ 28 more rows
```
…
Amphibio: 

```r
amphibio <- amphibio %>% 
  replace_with_na_all(condition = ~.x == 0)
amphibio
```

```
## # A tibble: 6,776 × 38
##    id    order family genus species   fos   ter   aqu   arb leaves flowers seeds
##    <chr> <chr> <chr>  <chr> <chr>   <dbl> <dbl> <dbl> <dbl>  <dbl>   <dbl> <dbl>
##  1 Anf0… Anura Allop… Allo… Alloph…    NA     1     1     1     NA      NA    NA
##  2 Anf0… Anura Alyti… Alyt… Alytes…    NA     1     1     1     NA      NA    NA
##  3 Anf0… Anura Alyti… Alyt… Alytes…    NA     1     1     1     NA      NA    NA
##  4 Anf0… Anura Alyti… Alyt… Alytes…    NA     1     1     1     NA      NA    NA
##  5 Anf0… Anura Alyti… Alyt… Alytes…    NA     1    NA     1     NA      NA    NA
##  6 Anf0… Anura Alyti… Alyt… Alytes…     1     1     1     1     NA      NA    NA
##  7 Anf0… Anura Alyti… Disc… Discog…     1     1     1    NA     NA      NA    NA
##  8 Anf0… Anura Alyti… Disc… Discog…     1     1     1    NA     NA      NA    NA
##  9 Anf0… Anura Alyti… Disc… Discog…     1     1     1    NA     NA      NA    NA
## 10 Anf0… Anura Alyti… Disc… Discog…     1     1     1    NA     NA      NA    NA
## # ℹ 6,766 more rows
## # ℹ 26 more variables: fruits <lgl>, arthro <dbl>, vert <dbl>, diu <dbl>,
## #   noc <dbl>, crepu <dbl>, wet_warm <dbl>, wet_cold <dbl>, dry_warm <dbl>,
## #   dry_cold <dbl>, body_mass_g <dbl>, age_at_maturity_min_y <dbl>,
## #   age_at_maturity_max_y <dbl>, body_size_mm <dbl>,
## #   size_at_maturity_min_mm <dbl>, size_at_maturity_max_mm <dbl>,
## #   longevity_max_y <dbl>, litter_size_min_n <dbl>, litter_size_max_n <dbl>, …
```
…
**6. Use the package `naniar` to produce a summary, including percentages, of missing data in each column for the `amniota` data.**  

```r
naniar::miss_var_summary(amniota)
```

```
## # A tibble: 36 × 3
##    variable                       n_miss pct_miss
##    <chr>                           <int>    <dbl>
##  1 subspecies                      21322    100  
##  2 female_body_mass_at_maturity_g  21318    100. 
##  3 female_svl_at_maturity_cm       21120     99.1
##  4 fledging_mass_g                 21111     99.0
##  5 male_svl_cm                     21040     98.7
##  6 no_sex_maturity_d               20860     97.8
##  7 egg_width_mm                    20727     97.2
##  8 egg_length_mm                   20702     97.1
##  9 weaning_weight_g                20258     95.0
## 10 female_svl_cm                   20242     94.9
## # ℹ 26 more rows
```

**7. Use the package `naniar` to produce a summary, including percentages, of missing data in each column for the `amphibio` data.**

```r
naniar::miss_var_summary(amphibio)
```

```
## # A tibble: 38 × 3
##    variable n_miss pct_miss
##    <chr>     <int>    <dbl>
##  1 fruits     6774    100. 
##  2 flowers    6772     99.9
##  3 seeds      6772     99.9
##  4 leaves     6752     99.6
##  5 dry_cold   6735     99.4
##  6 viv        6722     99.2
##  7 vert       6657     98.2
##  8 obs        6651     98.2
##  9 wet_cold   6625     97.8
## 10 crepu      6608     97.5
## # ℹ 28 more rows
```
…
```r
amphibio
```

```
## # A tibble: 6,776 × 38
##    id    order family genus species   fos   ter   aqu   arb leaves flowers seeds
##    <chr> <chr> <chr>  <chr> <chr>   <dbl> <dbl> <dbl> <dbl>  <dbl>   <dbl> <dbl>
##  1 Anf0… Anura Allop… Allo… Alloph…    NA     1     1     1     NA      NA    NA
##  2 Anf0… Anura Alyti… Alyt… Alytes…    NA     1     1     1     NA      NA    NA
##  3 Anf0… Anura Alyti… Alyt… Alytes…    NA     1     1     1     NA      NA    NA
##  4 Anf0… Anura Alyti… Alyt… Alytes…    NA     1     1     1     NA      NA    NA
##  5 Anf0… Anura Alyti… Alyt… Alytes…    NA     1    NA     1     NA      NA    NA
##  6 Anf0… Anura Alyti… Alyt… Alytes…     1     1     1     1     NA      NA    NA
##  7 Anf0… Anura Alyti… Disc… Discog…     1     1     1    NA     NA      NA    NA
##  8 Anf0… Anura Alyti… Disc… Discog…     1     1     1    NA     NA      NA    NA
##  9 Anf0… Anura Alyti… Disc… Discog…     1     1     1    NA     NA      NA    NA
## 10 Anf0… Anura Alyti… Disc… Discog…     1     1     1    NA     NA      NA    NA
## # ℹ 6,766 more rows
## # ℹ 26 more variables: fruits <lgl>, arthro <dbl>, vert <dbl>, diu <dbl>,
## #   noc <dbl>, crepu <dbl>, wet_warm <dbl>, wet_cold <dbl>, dry_warm <dbl>,
## #   dry_cold <dbl>, body_mass_g <dbl>, age_at_maturity_min_y <dbl>,
## #   age_at_maturity_max_y <dbl>, body_size_mm <dbl>,
## #   size_at_maturity_min_mm <dbl>, size_at_maturity_max_mm <dbl>,
## #   longevity_max_y <dbl>, litter_size_min_n <dbl>, litter_size_max_n <dbl>, …
```
…
