…
```r
deserts
```

```
## # A tibble: 34,786 × 13
##    record_id month   day  year plot_id species_id sex   hindfoot_length weight
##        <dbl> <dbl> <dbl> <dbl>   <dbl> <chr>      <chr>           <dbl>  <dbl>
##  1         1     7    16  1977       2 NL         M                  32     NA
##  2         2     7    16  1977       3 NL         M                  33     NA
##  3         3     7    16  1977       2 DM         F                  37     NA
##  4         4     7    16  1977       7 DM         M                  36     NA
##  5         5     7    16  1977       3 DM         M                  35     NA
##  6         6     7    16  1977       1 PF         M                  14     NA
##  7         7     7    16  1977       2 PE         F                  NA     NA
##  8         8     7    16  1977       1 DM         M                  37     NA
##  9         9     7    16  1977       1 DM         F                  34     NA
## 10        10     7    16  1977       6 PF         F                  20     NA
## # ℹ 34,776 more rows
## # ℹ 4 more variables: genus <chr>, species <chr>, taxa <chr>, plot_type <chr>
```
…
```r
deserts %>% 
  count(species) %>% #amount of observations for each species
  arrange(n)
```

```
## # A tibble: 40 × 2
##    species          n
##    <chr>        <int>
##  1 clarki           1
##  2 scutalatus       1
##  3 tereticaudus     1
##  4 tigris           1
##  5 uniparens        1
##  6 viridis          1
##  7 leucophrys       2
##  8 savannarum       2
##  9 fuscus           5
## 10 undulatus        5
## # ℹ 30 more rows
```
^Species that is the least frequently sampled have one observation. (clarki, scutalatus, tereticaudus, tigris, uniparens, viridis)


```r
deserts %>% 
  count(species) %>%
  arrange(desc(n)) #sort most to least observations
```

```
## # A tibble: 40 × 2
##    species          n
##    <chr>        <int>
##  1 merriami     10596
##  2 penicillatus  3123
##  3 ordii         3027
##  4 baileyi       2891
##  5 megalotis     2609
##  6 spectabilis   2504
##  7 torridus      2249
##  8 flavus        1597
##  9 eremicus      1299
## 10 albigula      1252
## # ℹ 30 more rows
```
…
**Plot**

```r
#New column with ratio of 'weight' to 'hind_foot' 
high_weight_desert <- deserts %>% 
  filter(species == "albigula" | species == "spectabilis") %>% 
  mutate(w_hindfoot_length_ratio = weight / hindfoot_length)
high_weight_desert 
```

```
## # A tibble: 3,756 × 14
##    record_id month   day  year plot_id species_id sex   hindfoot_length weight
##        <dbl> <dbl> <dbl> <dbl>   <dbl> <chr>      <chr>           <dbl>  <dbl>
##  1         1     7    16  1977       2 NL         M                  32     NA
##  2         2     7    16  1977       3 NL         M                  33     NA
##  3        11     7    16  1977       5 DS         F                  53     NA
##  4        17     7    16  1977       3 DS         F                  48     NA
##  5        20     7    17  1977      11 DS         F                  48     NA
##  6        22     7    17  1977      15 NL         F                  31     NA
##  7        30     7    17  1977      10 DS         F                  52     NA
##  8        38     7    17  1977      17 NL         M                  33     NA
##  9        42     7    18  1977      18 DS         F                  46     NA
## 10        58     7    18  1977      12 DS         M                  45     NA
## # ℹ 3,746 more rows
## # ℹ 5 more variables: genus <chr>, species <chr>, taxa <chr>, plot_type <chr>,
## #   w_hindfoot_length_ratio <dbl>
```
…
