…
```r
global_sharks %>% 
  naniar::miss_var_summary() 
```

```
## # A tibble: 21 × 3
##    variable n_miss pct_miss
##    <chr>     <int>    <dbl>
##  1 time       3518    51.1 
##  2 species    3118    45.3 
##  3 age        2982    43.3 
##  4 activity    586     8.51
##  5 sex         572     8.30
##  6 location    565     8.20
##  7 area        481     6.98
##  8 date        305     4.43
##  9 name        220     3.19
## 10 year        132     1.92
## # ℹ 11 more rows
```

2. (3 points) Are there any "hotspots" for shark incidents? Make a plot that shows the total number of incidents for the top 10 countries? Which country has the highest number of incidents?

**The US has the highest number of incidents**

```r
global_sharks %>% 
  count(country) %>% 
  arrange(desc(n))
```

```
## # A tibble: 216 × 2
##    country              n
##    <chr>            <int>
##  1 USA               2522
##  2 AUSTRALIA         1464
##  3 SOUTH AFRICA       596
##  4 NEW ZEALAND        142
##  5 PAPUA NEW GUINEA   136
##  6 BAHAMAS            132
##  7 BRAZIL             122
##  8 MEXICO             100
##  9 ITALY               72
## 10 FIJI                67
## # ℹ 206 more rows
```
…
4. (3 points) Which activity is associated with the highest number of incidents? Make a plot that compares the top 5 riskiest activities. "NA" should not be classified as an activity.
#Check the total for each activity

```r
global_sharks_new %>% 
  count(activity) %>% 
  arrange(desc(n))
```

```
## # A tibble: 1,554 × 2
##    activity         n
##    <chr>        <int>
##  1 Surfing       1112
##  2 Swimming      1009
##  3 <NA>           586
##  4 Fishing        498
##  5 Spearfishing   387
##  6 Wading         171
##  7 Bathing        166
##  8 Diving         145
##  9 Snorkeling     127
## 10 Standing       115
## # ℹ 1,544 more rows
```
…
