…
```r
sharks #This data is in wide format! 
```

```
## # A tibble: 211 × 16
##    incident_num month   day  year time    county     location mode  injury depth
##    <chr>        <dbl> <dbl> <dbl> <chr>   <chr>      <chr>    <chr> <chr>  <chr>
##  1 1               10     8  1950 12:00   San Diego  Imperia… Swim… major  surf…
##  2 2                5    27  1952 14:00   San Diego  Imperia… Swim… minor  surf…
##  3 3               12     7  1952 14:00   Monterey   Lovers … Swim… fatal  surf…
##  4 4                2     6  1955 12:00   Monterey   Pacific… Free… minor  surf…
##  5 5                8    14  1956 16:30   San Luis … Pismo B… Swim… major  surf…
##  6 6                4    28  1957 13:30   San Luis … Morro B… Swim… fatal  surf…
##  7 7               10    12  1958 Unknown San Diego  Coronad… Swim… major  surf…
##  8 8                5     7  1959 17:30   San Franc… Baker B… Swim… fatal  surf…
##  9 9                6    14  1959 17:00   San Diego  La Jolla Free… fatal  surf…
## 10 10               7    28  1959 19:30   San Diego  La Jolla Free… minor  surf…
## # ℹ 201 more rows
## # ℹ 6 more variables: species <chr>, comment <chr>, longitude <chr>,
## #   latitude <dbl>, confirmed_source <chr>, wfl_case_number <chr>
```
…
```
## Warning: There were 21 warnings in `summarize()`.
## The first warning was:
## ℹ In argument: `mean_incidents = mean(incident_num, na.rm = TRUE)`.
## ℹ In group 1: `county = "Del Norte"`.
## Caused by warning in `mean.default()`:
## ! argument is not numeric or logical: returning NA
## ℹ Run `dplyr::last_dplyr_warnings()` to see the 20 remaining warnings.
```

```
## # A tibble: 21 × 3
##    county               mean_incidents total
##    <chr>                         <dbl> <int>
##  1 Del Norte                        NA     3
##  2 Humboldt                         NA    18
##  3 Island - Catalina                NA     4
##  4 Island - Farallones              NA     7
##  5 Island - San Miguel              NA     5
##  6 Island - San Nicolas             NA     1
##  7 Island - Santa Cruz              NA     2
##  8 Island - Santa Rosa              NA     1
##  9 Los Angeles                      NA     9
## 10 Marin                            NA    16
## # ℹ 11 more rows
```
…
```
## `summarise()` has grouped output by 'injury'. You can override using the
## `.groups` argument.
```

```
## # A tibble: 57 × 5
## # Groups:   injury [4]
##    injury county              min    mean max  
##    <chr>  <chr>               <chr> <dbl> <chr>
##  1 fatal  Island - San Miguel 82       NA 82   
##  2 fatal  Los Angeles         62       NA 62   
##  3 fatal  Mendocino           103      NA 103  
##  4 fatal  Monterey            3        NA 45   
##  5 fatal  San Diego           127      NA 9    
##  6 fatal  San Francisco       8        NA 8    
##  7 fatal  San Luis Obispo     100      NA 6    
##  8 fatal  San Mateo           50       NA 50   
##  9 fatal  Santa Barbara       139      NA 150  
## 10 fatal  Santa Cruz          192      NA 192  
## # ℹ 47 more rows
```
…
