…
The publisher with the highest number of superheros is Marvel Comics. 

2. Notice that we have some neutral superheros! Who are they? List their names below.  

```r
superhero_info %>% 
  select(name, alignment) %>%  #Shows the name and alignment columns
  filter(alignment=="neutral") #Only gives the "neutral" alignment
```

```
## # A tibble: 24 × 2
##    name         alignment
##    <chr>        <chr>    
##  1 Bizarro      neutral  
##  2 Black Flash  neutral  
##  3 Captain Cold neutral  
##  4 Copycat      neutral  
##  5 Deadpool     neutral  
##  6 Deathstroke  neutral  
##  7 Etrigan      neutral  
##  8 Galactus     neutral  
##  9 Gladiator    neutral  
## 10 Indigo       neutral  
## # ℹ 14 more rows
```
There are 24 neutral superheros in the superhero_info dataframe.

## `superhero_info`
3. Let's say we are only interested in the variables name, alignment, and "race". How would you isolate these variables from `superhero_info`?

```r
superhero_info %>% 
  select(name, alignment, race) %>% #shows the columns for name, alignment, and race
  arrange(superhero_info)
```

```
## # A tibble: 734 × 3
##    name          alignment race             
##    <chr>         <chr>     <chr>            
##  1 A-Bomb        good      Human            
##  2 Abe Sapien    good      Icthyo Sapien    
##  3 Abin Sur      good      Ungaran          
##  4 Abomination   bad       Human / Radiation
##  5 Abraxas       bad       Cosmic Entity    
##  6 Absorbing Man bad       Human            
##  7 Adam Monroe   good      <NA>             
##  8 Adam Strange  good      Human            
##  9 Agent 13      good      <NA>             
## 10 Agent Bob     good      Human            
## # ℹ 724 more rows
```
```r
#select(superhero_info, name, alignment, race)
#This is another solution for getting the variables we are interested in without involving a pipe. 
```

## Not Human
4. List all of the superheros that are not human.

```r
superhero_info %>% 
  filter(race != "Human")
```

```
## # A tibble: 222 × 10
##    name  gender eye_color race  hair_color height publisher skin_color alignment
##    <chr> <chr>  <chr>     <chr> <chr>       <dbl> <chr>     <chr>      <chr>    
##  1 Abe … Male   blue      Icth… No Hair       191 Dark Hor… blue       good     
##  2 Abin… Male   blue      Unga… No Hair       185 DC Comics red        good     
##  3 Abom… Male   green     Huma… No Hair       203 Marvel C… <NA>       bad      
##  4 Abra… Male   blue      Cosm… Black          NA Marvel C… <NA>       bad      
##  5 Ajax  Male   brown     Cybo… Black         193 Marvel C… <NA>       bad      
##  6 Alien Male   <NA>      Xeno… No Hair       244 Dark Hor… black      bad      
##  7 Amazo Male   red       Andr… <NA>          257 DC Comics <NA>       bad      
##  8 Angel Male   <NA>      Vamp… <NA>           NA Dark Hor… <NA>       good     
##  9 Ange… Female yellow    Muta… Black         165 Marvel C… <NA>       good     
## 10 Anti… Male   yellow    God … No Hair        61 DC Comics <NA>       bad      
## # ℹ 212 more rows
## # ℹ 1 more variable: weight <dbl>
```
…
12. Who has the highest height to weight ratio?  

```r
height_weight_ratio %>%  
  mutate(ratio = height/weight) %>% 
  arrange(desc(ratio))
```

```
## # A tibble: 734 × 4
##    name            height weight  ratio
##    <chr>            <dbl>  <dbl>  <dbl>
##  1 Groot              701      4 175.  
##  2 Galactus           876     16  54.8 
##  3 Fin Fang Foom      975     18  54.2 
##  4 Longshot           188     36   5.22
##  5 Jack-Jack           71     14   5.07
##  6 Rocket Raccoon     122     25   4.88
##  7 Dash               122     27   4.52
##  8 Howard the Duck     79     18   4.39
##  9 Swarm              196     47   4.17
## 10 Yoda                66     17   3.88
## # ℹ 724 more rows
```
…
13. How many superheros have a combination of agility, stealth, super_strength, stamina?

```r
superhero_powers %>% 
  select(agility, stealth, super_strength, stamina) %>% 
  filter(agility==T) %>% 
  filter(stealth==T) %>% 
  filter(super_strength==T) %>% 
  filter(stamina==T)
```

```
## # A tibble: 40 × 4
##    agility stealth super_strength stamina
##    <lgl>   <lgl>   <lgl>          <lgl>  
##  1 TRUE    TRUE    TRUE           TRUE   
##  2 TRUE    TRUE    TRUE           TRUE   
##  3 TRUE    TRUE    TRUE           TRUE   
##  4 TRUE    TRUE    TRUE           TRUE   
##  5 TRUE    TRUE    TRUE           TRUE   
##  6 TRUE    TRUE    TRUE           TRUE   
##  7 TRUE    TRUE    TRUE           TRUE   
##  8 TRUE    TRUE    TRUE           TRUE   
##  9 TRUE    TRUE    TRUE           TRUE   
## 10 TRUE    TRUE    TRUE           TRUE   
## # ℹ 30 more rows
```
…
